<svg width="21" height="13" viewBox="0 0 21 13" fill="none" xmlns="http://www.w3.org/2000/svg">
<path d="M6 1L1 6.5L6 12" stroke="#2B2F22"/>
<rect width="20" height="1" transform="matrix(-1 0 0 1 21 6)" fill="#2B2F22"/>
</svg>
